<?xml version="1.0" encoding="utf-8"?>
<!DOCTYPE eagle SYSTEM "eagle.dtd">
<eagle version="7.2.0">
<drawing>
<settings>
<setting alwaysvectorfont="no"/>
<setting verticaltext="up"/>
</settings>
<grid distance="0.01" unitdist="inch" unit="inch" style="lines" multiple="1" display="yes" altdistance="0.01" altunitdist="inch" altunit="inch"/>
<layers>
<layer number="1" name="Top" color="4" fill="1" visible="yes" active="yes"/>
<layer number="16" name="Bottom" color="1" fill="1" visible="yes" active="yes"/>
<layer number="17" name="Pads" color="2" fill="1" visible="yes" active="yes"/>
<layer number="18" name="Vias" color="2" fill="1" visible="yes" active="yes"/>
<layer number="19" name="Unrouted" color="6" fill="1" visible="yes" active="yes"/>
<layer number="20" name="Dimension" color="15" fill="1" visible="yes" active="yes"/>
<layer number="21" name="tPlace" color="7" fill="1" visible="yes" active="yes"/>
<layer number="22" name="bPlace" color="7" fill="1" visible="yes" active="yes"/>
<layer number="23" name="tOrigins" color="15" fill="1" visible="yes" active="yes"/>
<layer number="24" name="bOrigins" color="15" fill="1" visible="yes" active="yes"/>
<layer number="25" name="tNames" color="7" fill="1" visible="yes" active="yes"/>
<layer number="26" name="bNames" color="7" fill="1" visible="yes" active="yes"/>
<layer number="27" name="tValues" color="7" fill="1" visible="yes" active="yes"/>
<layer number="28" name="bValues" color="7" fill="1" visible="yes" active="yes"/>
<layer number="29" name="tStop" color="7" fill="3" visible="yes" active="yes"/>
<layer number="30" name="bStop" color="7" fill="6" visible="yes" active="yes"/>
<layer number="31" name="tCream" color="7" fill="4" visible="yes" active="yes"/>
<layer number="32" name="bCream" color="7" fill="5" visible="yes" active="yes"/>
<layer number="33" name="tFinish" color="6" fill="3" visible="yes" active="yes"/>
<layer number="34" name="bFinish" color="6" fill="6" visible="yes" active="yes"/>
<layer number="35" name="tGlue" color="7" fill="4" visible="yes" active="yes"/>
<layer number="36" name="bGlue" color="7" fill="5" visible="yes" active="yes"/>
<layer number="37" name="tTest" color="7" fill="1" visible="yes" active="yes"/>
<layer number="38" name="bTest" color="7" fill="1" visible="yes" active="yes"/>
<layer number="39" name="tKeepout" color="4" fill="11" visible="yes" active="yes"/>
<layer number="40" name="bKeepout" color="1" fill="11" visible="yes" active="yes"/>
<layer number="41" name="tRestrict" color="4" fill="10" visible="yes" active="yes"/>
<layer number="42" name="bRestrict" color="1" fill="10" visible="yes" active="yes"/>
<layer number="43" name="vRestrict" color="2" fill="10" visible="yes" active="yes"/>
<layer number="44" name="Drills" color="7" fill="1" visible="yes" active="yes"/>
<layer number="45" name="Holes" color="7" fill="1" visible="yes" active="yes"/>
<layer number="46" name="Milling" color="3" fill="1" visible="yes" active="yes"/>
<layer number="47" name="Measures" color="7" fill="1" visible="yes" active="yes"/>
<layer number="48" name="Document" color="7" fill="1" visible="yes" active="yes"/>
<layer number="49" name="Reference" color="7" fill="1" visible="yes" active="yes"/>
<layer number="50" name="dxf" color="7" fill="1" visible="no" active="no"/>
<layer number="51" name="tDocu" color="7" fill="1" visible="yes" active="yes"/>
<layer number="52" name="bDocu" color="7" fill="1" visible="yes" active="yes"/>
<layer number="53" name="tGND_GNDA" color="7" fill="9" visible="no" active="no"/>
<layer number="54" name="bGND_GNDA" color="1" fill="9" visible="no" active="no"/>
<layer number="56" name="wert" color="7" fill="1" visible="no" active="no"/>
<layer number="57" name="tCAD" color="7" fill="1" visible="no" active="no"/>
<layer number="59" name="tCarbon" color="7" fill="1" visible="no" active="no"/>
<layer number="60" name="bCarbon" color="7" fill="1" visible="no" active="no"/>
<layer number="88" name="SimResults" color="9" fill="1" visible="yes" active="yes"/>
<layer number="89" name="SimProbes" color="9" fill="1" visible="yes" active="yes"/>
<layer number="90" name="Modules" color="5" fill="1" visible="no" active="no"/>
<layer number="91" name="Nets" color="2" fill="1" visible="no" active="no"/>
<layer number="92" name="Busses" color="1" fill="1" visible="no" active="no"/>
<layer number="93" name="Pins" color="2" fill="1" visible="no" active="no"/>
<layer number="94" name="Symbols" color="4" fill="1" visible="no" active="no"/>
<layer number="95" name="Names" color="7" fill="1" visible="no" active="no"/>
<layer number="96" name="Values" color="7" fill="1" visible="no" active="no"/>
<layer number="97" name="Info" color="7" fill="1" visible="no" active="no"/>
<layer number="98" name="Guide" color="6" fill="1" visible="no" active="no"/>
<layer number="99" name="SpiceOrder" color="7" fill="1" visible="no" active="no"/>
<layer number="100" name="Muster" color="7" fill="1" visible="no" active="no"/>
<layer number="101" name="Patch_Top" color="12" fill="4" visible="yes" active="yes"/>
<layer number="102" name="Vscore" color="7" fill="1" visible="yes" active="yes"/>
<layer number="103" name="tMap" color="7" fill="1" visible="yes" active="yes"/>
<layer number="104" name="Name" color="16" fill="1" visible="yes" active="yes"/>
<layer number="105" name="tPlate" color="7" fill="1" visible="yes" active="yes"/>
<layer number="106" name="bPlate" color="7" fill="1" visible="yes" active="yes"/>
<layer number="107" name="Crop" color="7" fill="1" visible="yes" active="yes"/>
<layer number="108" name="tplace-old" color="10" fill="1" visible="yes" active="yes"/>
<layer number="109" name="ref-old" color="11" fill="1" visible="yes" active="yes"/>
<layer number="110" name="fp0" color="7" fill="1" visible="yes" active="yes"/>
<layer number="111" name="LPC17xx" color="7" fill="1" visible="yes" active="yes"/>
<layer number="112" name="tSilk" color="7" fill="1" visible="yes" active="yes"/>
<layer number="113" name="IDFDebug" color="7" fill="1" visible="yes" active="yes"/>
<layer number="114" name="Badge_Outline" color="7" fill="1" visible="yes" active="yes"/>
<layer number="115" name="ReferenceISLANDS" color="7" fill="1" visible="yes" active="yes"/>
<layer number="116" name="Patch_BOT" color="9" fill="4" visible="yes" active="yes"/>
<layer number="118" name="Rect_Pads" color="7" fill="1" visible="yes" active="yes"/>
<layer number="121" name="_tsilk" color="7" fill="1" visible="yes" active="yes"/>
<layer number="122" name="_bsilk" color="7" fill="1" visible="yes" active="yes"/>
<layer number="123" name="tTestmark" color="7" fill="1" visible="yes" active="yes"/>
<layer number="124" name="bTestmark" color="7" fill="1" visible="yes" active="yes"/>
<layer number="125" name="_tNames" color="7" fill="1" visible="yes" active="yes"/>
<layer number="126" name="_bNames" color="7" fill="1" visible="yes" active="yes"/>
<layer number="127" name="_tValues" color="7" fill="1" visible="yes" active="yes"/>
<layer number="128" name="_bValues" color="7" fill="1" visible="yes" active="yes"/>
<layer number="129" name="Mask" color="7" fill="1" visible="yes" active="yes"/>
<layer number="131" name="tAdjust" color="7" fill="1" visible="yes" active="yes"/>
<layer number="132" name="bAdjust" color="7" fill="1" visible="yes" active="yes"/>
<layer number="144" name="Drill_legend" color="7" fill="1" visible="yes" active="yes"/>
<layer number="150" name="Notes" color="7" fill="1" visible="yes" active="yes"/>
<layer number="151" name="HeatSink" color="7" fill="1" visible="yes" active="yes"/>
<layer number="152" name="_bDocu" color="7" fill="1" visible="yes" active="yes"/>
<layer number="153" name="FabDoc1" color="7" fill="1" visible="yes" active="yes"/>
<layer number="154" name="FabDoc2" color="7" fill="1" visible="yes" active="yes"/>
<layer number="155" name="FabDoc3" color="7" fill="1" visible="yes" active="yes"/>
<layer number="199" name="Contour" color="7" fill="1" visible="yes" active="yes"/>
<layer number="200" name="200bmp" color="1" fill="10" visible="yes" active="yes"/>
<layer number="201" name="201bmp" color="2" fill="10" visible="yes" active="yes"/>
<layer number="202" name="202bmp" color="3" fill="10" visible="yes" active="yes"/>
<layer number="203" name="203bmp" color="4" fill="10" visible="yes" active="yes"/>
<layer number="204" name="204bmp" color="5" fill="10" visible="yes" active="yes"/>
<layer number="205" name="205bmp" color="6" fill="10" visible="yes" active="yes"/>
<layer number="206" name="206bmp" color="7" fill="10" visible="yes" active="yes"/>
<layer number="207" name="207bmp" color="8" fill="10" visible="yes" active="yes"/>
<layer number="208" name="208bmp" color="9" fill="10" visible="yes" active="yes"/>
<layer number="209" name="209bmp" color="7" fill="1" visible="yes" active="yes"/>
<layer number="210" name="210bmp" color="7" fill="1" visible="yes" active="yes"/>
<layer number="211" name="211bmp" color="7" fill="1" visible="yes" active="yes"/>
<layer number="212" name="212bmp" color="7" fill="1" visible="yes" active="yes"/>
<layer number="213" name="213bmp" color="7" fill="1" visible="yes" active="yes"/>
<layer number="214" name="214bmp" color="7" fill="1" visible="yes" active="yes"/>
<layer number="215" name="215bmp" color="7" fill="1" visible="yes" active="yes"/>
<layer number="216" name="216bmp" color="7" fill="1" visible="yes" active="yes"/>
<layer number="217" name="217bmp" color="18" fill="1" visible="no" active="no"/>
<layer number="218" name="218bmp" color="19" fill="1" visible="no" active="no"/>
<layer number="219" name="219bmp" color="20" fill="1" visible="no" active="no"/>
<layer number="220" name="220bmp" color="21" fill="1" visible="no" active="no"/>
<layer number="221" name="221bmp" color="22" fill="1" visible="no" active="no"/>
<layer number="222" name="222bmp" color="23" fill="1" visible="no" active="no"/>
<layer number="223" name="223bmp" color="24" fill="1" visible="no" active="no"/>
<layer number="224" name="224bmp" color="25" fill="1" visible="no" active="no"/>
<layer number="225" name="225bmp" color="7" fill="1" visible="yes" active="yes"/>
<layer number="226" name="226bmp" color="7" fill="1" visible="yes" active="yes"/>
<layer number="227" name="227bmp" color="7" fill="1" visible="yes" active="yes"/>
<layer number="228" name="228bmp" color="7" fill="1" visible="yes" active="yes"/>
<layer number="229" name="229bmp" color="7" fill="1" visible="yes" active="yes"/>
<layer number="230" name="230bmp" color="7" fill="1" visible="yes" active="yes"/>
<layer number="231" name="231bmp" color="7" fill="1" visible="yes" active="yes"/>
<layer number="232" name="Eagle3D_PG2" color="7" fill="1" visible="no" active="no"/>
<layer number="233" name="Eagle3D_PG3" color="7" fill="1" visible="no" active="no"/>
<layer number="248" name="Housing" color="7" fill="1" visible="yes" active="yes"/>
<layer number="249" name="Edge" color="7" fill="1" visible="yes" active="yes"/>
<layer number="250" name="Descript" color="3" fill="1" visible="no" active="no"/>
<layer number="251" name="SMDround" color="12" fill="11" visible="no" active="no"/>
<layer number="254" name="cooling" color="7" fill="1" visible="yes" active="yes"/>
<layer number="255" name="routoute" color="7" fill="1" visible="yes" active="yes"/>
</layers>
<board>
<plain>
<wire x1="0" y1="0" x2="25.4" y2="0" width="0" layer="20"/>
<wire x1="25.4" y1="0" x2="25.4" y2="22.86" width="0" layer="20"/>
<wire x1="25.4" y1="22.86" x2="0" y2="22.86" width="0" layer="20"/>
<wire x1="0" y1="22.86" x2="0" y2="0" width="0" layer="20"/>
</plain>
<libraries>
<library name="custom_components">
<packages>
<package name="SOT95P300X145-5N">
<smd name="1" x="-1.3716" y="0.9398" dx="1.3208" dy="0.5588" layer="1"/>
<smd name="2" x="-1.3716" y="0" dx="1.3208" dy="0.5588" layer="1"/>
<smd name="3" x="-1.3716" y="-0.9398" dx="1.3208" dy="0.5588" layer="1"/>
<smd name="4" x="1.3716" y="-0.9398" dx="1.3208" dy="0.5588" layer="1"/>
<smd name="5" x="1.3716" y="0.9398" dx="1.3208" dy="0.5588" layer="1"/>
<wire x1="-0.6096" y1="-1.5494" x2="0.6096" y2="-1.5494" width="0.1524" layer="21"/>
<wire x1="0.889" y1="-0.3302" x2="0.889" y2="0.3302" width="0.1524" layer="21"/>
<wire x1="0.6096" y1="1.5494" x2="0.3048" y2="1.5494" width="0.1524" layer="21"/>
<wire x1="0.3048" y1="1.5494" x2="-0.3048" y2="1.5494" width="0.1524" layer="21"/>
<wire x1="-0.3048" y1="1.5494" x2="-0.6096" y2="1.5494" width="0.1524" layer="21"/>
<wire x1="0.3048" y1="1.5494" x2="-0.3048" y2="1.5494" width="0" layer="21" curve="-180"/>
<text x="-2.2098" y="1.3716" size="1.27" layer="21" ratio="6" rot="SR0">*</text>
<wire x1="-0.889" y1="-1.5494" x2="0.889" y2="-1.5494" width="0.1524" layer="51"/>
<wire x1="0.889" y1="-1.5494" x2="0.889" y2="-1.1938" width="0.1524" layer="51"/>
<wire x1="0.889" y1="-1.1938" x2="0.889" y2="-0.6858" width="0.1524" layer="51"/>
<wire x1="0.889" y1="-0.6858" x2="0.889" y2="0.6858" width="0.1524" layer="51"/>
<wire x1="0.889" y1="1.5494" x2="0.3048" y2="1.5494" width="0.1524" layer="51"/>
<wire x1="0.3048" y1="1.5494" x2="-0.3048" y2="1.5494" width="0.1524" layer="51"/>
<wire x1="-0.3048" y1="1.5494" x2="-0.889" y2="1.5494" width="0.1524" layer="51"/>
<wire x1="-0.889" y1="1.5494" x2="-0.889" y2="1.1938" width="0.1524" layer="51"/>
<wire x1="-0.889" y1="1.1938" x2="-0.889" y2="0.6858" width="0.1524" layer="51"/>
<wire x1="-0.889" y1="0.6858" x2="-0.889" y2="0.254" width="0.1524" layer="51"/>
<wire x1="-0.889" y1="0.254" x2="-0.889" y2="-0.254" width="0.1524" layer="51"/>
<wire x1="-0.889" y1="-0.254" x2="-0.889" y2="-0.6858" width="0.1524" layer="51"/>
<wire x1="-0.889" y1="1.1938" x2="-1.6002" y2="1.1938" width="0.1524" layer="51"/>
<wire x1="-1.6002" y1="1.1938" x2="-1.6002" y2="0.6858" width="0.1524" layer="51"/>
<wire x1="-1.6002" y1="0.6858" x2="-0.889" y2="0.6858" width="0.1524" layer="51"/>
<wire x1="-0.889" y1="0.254" x2="-1.6002" y2="0.254" width="0.1524" layer="51"/>
<wire x1="-1.6002" y1="0.254" x2="-1.6002" y2="-0.254" width="0.1524" layer="51"/>
<wire x1="-1.6002" y1="-0.254" x2="-0.889" y2="-0.254" width="0.1524" layer="51"/>
<wire x1="-0.889" y1="-1.5494" x2="-0.889" y2="-1.1938" width="0.1524" layer="51"/>
<wire x1="-0.889" y1="-1.1938" x2="-0.889" y2="-0.6858" width="0.1524" layer="51"/>
<wire x1="-0.889" y1="-0.6858" x2="-1.6002" y2="-0.6858" width="0.1524" layer="51"/>
<wire x1="-1.6002" y1="-0.6858" x2="-1.6002" y2="-1.1938" width="0.1524" layer="51"/>
<wire x1="-1.6002" y1="-1.1938" x2="-0.889" y2="-1.1938" width="0.1524" layer="51"/>
<wire x1="0.889" y1="-1.1938" x2="1.6002" y2="-1.1938" width="0.1524" layer="51"/>
<wire x1="1.6002" y1="-1.1938" x2="1.6002" y2="-0.6858" width="0.1524" layer="51"/>
<wire x1="1.6002" y1="-0.6858" x2="0.889" y2="-0.6858" width="0.1524" layer="51"/>
<wire x1="0.889" y1="1.5494" x2="0.889" y2="1.1938" width="0.1524" layer="51"/>
<wire x1="0.889" y1="1.1938" x2="0.889" y2="0.6858" width="0.1524" layer="51"/>
<wire x1="0.889" y1="0.6858" x2="1.6002" y2="0.6858" width="0.1524" layer="51"/>
<wire x1="1.6002" y1="0.6858" x2="1.6002" y2="1.1938" width="0.1524" layer="51"/>
<wire x1="1.6002" y1="1.1938" x2="0.889" y2="1.1938" width="0.1524" layer="51"/>
<wire x1="0.3048" y1="1.5494" x2="-0.3048" y2="1.5494" width="0" layer="51" curve="-180"/>
<text x="-2.2098" y="1.3716" size="1.27" layer="51" ratio="6" rot="SR0">*</text>
<text x="-4.5466" y="1.9812" size="2.0828" layer="25" ratio="10" rot="SR0">&gt;NAME</text>
<text x="-5.842" y="-4.1656" size="2.0828" layer="27" ratio="10" rot="SR0">&gt;VALUE</text>
</package>
<package name="SOT23-6L">
<description>&lt;b&gt;Small Outline Transistor&lt;/b&gt;</description>
<wire x1="1.422" y1="0.81" x2="1.422" y2="-0.81" width="0.1524" layer="21"/>
<wire x1="1.422" y1="-0.81" x2="-1.422" y2="-0.81" width="0.1524" layer="51"/>
<wire x1="-1.422" y1="-0.81" x2="-1.422" y2="0.81" width="0.1524" layer="21"/>
<wire x1="-1.422" y1="0.81" x2="1.422" y2="0.81" width="0.1524" layer="51"/>
<wire x1="-0.428" y1="-0.81" x2="-0.522" y2="-0.81" width="0.1524" layer="21"/>
<wire x1="0.522" y1="-0.81" x2="0.428" y2="-0.81" width="0.1524" layer="21"/>
<wire x1="-1.328" y1="-0.81" x2="-1.422" y2="-0.81" width="0.1524" layer="21"/>
<wire x1="1.422" y1="-0.81" x2="1.328" y2="-0.81" width="0.1524" layer="21"/>
<wire x1="1.328" y1="0.81" x2="1.422" y2="0.81" width="0.1524" layer="21"/>
<wire x1="-1.422" y1="0.81" x2="-1.328" y2="0.81" width="0.1524" layer="21"/>
<wire x1="0.428" y1="0.81" x2="0.522" y2="0.81" width="0.1524" layer="21"/>
<wire x1="-0.522" y1="0.81" x2="-0.428" y2="0.81" width="0.1524" layer="21"/>
<circle x="-1" y="-0.45" radius="0.1" width="0.1524" layer="21"/>
<smd name="1" x="-0.95" y="-1.3" dx="0.55" dy="1.2" layer="1"/>
<smd name="2" x="0" y="-1.3" dx="0.55" dy="1.2" layer="1"/>
<smd name="3" x="0.95" y="-1.3" dx="0.55" dy="1.2" layer="1"/>
<smd name="4" x="0.95" y="1.3" dx="0.55" dy="1.2" layer="1"/>
<smd name="5" x="0" y="1.3" dx="0.55" dy="1.2" layer="1"/>
<smd name="6" x="-0.95" y="1.3" dx="0.55" dy="1.2" layer="1"/>
<text x="-1.905" y="1.905" size="1.27" layer="25">&gt;NAME</text>
<text x="-1.905" y="-3.175" size="1.27" layer="27">&gt;VALUE</text>
<rectangle x1="-1.2" y1="-1.5" x2="-0.7" y2="-0.85" layer="51"/>
<rectangle x1="-0.25" y1="-1.5" x2="0.25" y2="-0.85" layer="51"/>
<rectangle x1="0.7" y1="-1.5" x2="1.2" y2="-0.85" layer="51"/>
<rectangle x1="0.7" y1="0.85" x2="1.2" y2="1.5" layer="51"/>
<rectangle x1="-0.25" y1="0.85" x2="0.25" y2="1.5" layer="51"/>
<rectangle x1="-1.2" y1="0.85" x2="-0.7" y2="1.5" layer="51"/>
</package>
<package name="SOT23">
<description>&lt;b&gt;SMALL OUTLINE TRANSISTOR&lt;/b&gt;&lt;p&gt;
reflow soldering</description>
<wire x1="-1.973" y1="1.983" x2="1.973" y2="1.983" width="0.0508" layer="39"/>
<wire x1="1.973" y1="-1.983" x2="-1.973" y2="-1.983" width="0.0508" layer="39"/>
<wire x1="-1.973" y1="-1.983" x2="-1.973" y2="1.983" width="0.0508" layer="39"/>
<wire x1="1.973" y1="1.983" x2="1.973" y2="-1.983" width="0.0508" layer="39"/>
<wire x1="1.422" y1="0.66" x2="1.422" y2="-0.66" width="0.1524" layer="51"/>
<wire x1="1.422" y1="-0.66" x2="-1.422" y2="-0.66" width="0.1524" layer="51"/>
<wire x1="-1.422" y1="-0.66" x2="-1.422" y2="0.66" width="0.1524" layer="51"/>
<wire x1="-1.422" y1="0.66" x2="1.422" y2="0.66" width="0.1524" layer="51"/>
<smd name="3" x="0" y="1.1" dx="1" dy="1.4" layer="1"/>
<smd name="2" x="0.95" y="-1.1" dx="1" dy="1.4" layer="1"/>
<smd name="1" x="-0.95" y="-1.1" dx="1" dy="1.4" layer="1"/>
<text x="-1.905" y="1.905" size="1.27" layer="25">&gt;NAME</text>
<text x="-1.905" y="-3.175" size="1.27" layer="27">&gt;VALUE</text>
<rectangle x1="-0.2286" y1="0.7112" x2="0.2286" y2="1.2954" layer="51"/>
<rectangle x1="0.7112" y1="-1.2954" x2="1.1684" y2="-0.7112" layer="51"/>
<rectangle x1="-1.1684" y1="-1.2954" x2="-0.7112" y2="-0.7112" layer="51"/>
<rectangle x1="-0.5001" y1="-0.3" x2="0.5001" y2="0.3" layer="35"/>
</package>
<package name="SOD123">
<description>&lt;b&gt;SMALL OUTLINE DIODE&lt;/b&gt;</description>
<wire x1="-2.973" y1="0.983" x2="2.973" y2="0.983" width="0.0508" layer="39"/>
<wire x1="2.973" y1="-0.983" x2="-2.973" y2="-0.983" width="0.0508" layer="39"/>
<wire x1="-2.973" y1="-0.983" x2="-2.973" y2="0.983" width="0.0508" layer="39"/>
<wire x1="2.973" y1="0.983" x2="2.973" y2="-0.983" width="0.0508" layer="39"/>
<wire x1="-1.321" y1="0.787" x2="1.321" y2="0.787" width="0.1016" layer="51"/>
<wire x1="-1.321" y1="-0.787" x2="1.321" y2="-0.787" width="0.1016" layer="51"/>
<wire x1="-1.321" y1="-0.787" x2="-1.321" y2="0.787" width="0.1016" layer="51"/>
<wire x1="1.321" y1="-0.787" x2="1.321" y2="0.787" width="0.1016" layer="51"/>
<wire x1="-1" y1="0" x2="0" y2="0.5" width="0.2032" layer="51"/>
<wire x1="0" y1="0.5" x2="0" y2="-0.5" width="0.2032" layer="51"/>
<wire x1="0" y1="-0.5" x2="-1" y2="0" width="0.2032" layer="51"/>
<wire x1="-1" y1="0.5" x2="-1" y2="0" width="0.2032" layer="51"/>
<wire x1="-1" y1="0" x2="-1" y2="-0.5" width="0.2032" layer="51"/>
<smd name="1" x="-1.7" y="0" dx="1.6" dy="0.8" layer="1"/>
<smd name="2" x="1.7" y="0" dx="1.6" dy="0.8" layer="1"/>
<text x="-1.905" y="1.905" size="1.27" layer="25">&gt;NAME</text>
<text x="-1.905" y="-3.175" size="1.27" layer="27">&gt;VALUE</text>
<rectangle x1="-1.9558" y1="-0.3048" x2="-1.3716" y2="0.3048" layer="51"/>
<rectangle x1="1.3716" y1="-0.3048" x2="1.9558" y2="0.3048" layer="51"/>
<rectangle x1="-0.4001" y1="-0.7" x2="0.4001" y2="0.7" layer="35"/>
</package>
</packages>
</library>
<library name="SparkFun-Resistors">
<description>&lt;h3&gt;SparkFun Electronics' preferred foot prints&lt;/h3&gt;
In this library you'll find resistors, capacitors, inductors, test points, jumper pads, etc.&lt;br&gt;&lt;br&gt;
We've spent an enormous amount of time creating and checking these footprints and parts, but it is the end user's responsibility to ensure correctness and suitablity for a given componet or application. If you enjoy using this library, please buy one of our products at www.sparkfun.com.
&lt;br&gt;&lt;br&gt;
&lt;b&gt;Licensing:&lt;/b&gt; CC v3.0 Share-Alike You are welcome to use this library for commercial purposes. For attribution, we ask that when you begin to sell your device using our footprint, you email us with a link to the product being sold. We want bragging rights that we helped (in a very small part) to create your 8th world wonder. We would like the opportunity to feature your device on our homepage.</description>
<packages>
<package name="0805">
<wire x1="-0.3" y1="0.6" x2="0.3" y2="0.6" width="0.1524" layer="21"/>
<wire x1="-0.3" y1="-0.6" x2="0.3" y2="-0.6" width="0.1524" layer="21"/>
<smd name="1" x="-0.9" y="0" dx="0.8" dy="1.2" layer="1"/>
<smd name="2" x="0.9" y="0" dx="0.8" dy="1.2" layer="1"/>
<text x="-0.762" y="0.8255" size="0.4064" layer="25">&gt;NAME</text>
<text x="-1.016" y="-1.397" size="0.4064" layer="27">&gt;VALUE</text>
</package>
</packages>
</library>
<library name="SparkFun-Capacitors">
<description>&lt;h3&gt;SparkFun Electronics' preferred foot prints&lt;/h3&gt;
In this library you'll find resistors, capacitors, inductors, test points, jumper pads, etc.&lt;br&gt;&lt;br&gt;
We've spent an enormous amount of time creating and checking these footprints and parts, but it is the end user's responsibility to ensure correctness and suitablity for a given componet or application. If you enjoy using this library, please buy one of our products at www.sparkfun.com.
&lt;br&gt;&lt;br&gt;
&lt;b&gt;Licensing:&lt;/b&gt; CC v3.0 Share-Alike You are welcome to use this library for commercial purposes. For attribution, we ask that when you begin to sell your device using our footprint, you email us with a link to the product being sold. We want bragging rights that we helped (in a very small part) to create your 8th world wonder. We would like the opportunity to feature your device on our homepage.</description>
<packages>
<package name="0805">
<wire x1="-0.3" y1="0.6" x2="0.3" y2="0.6" width="0.1524" layer="21"/>
<wire x1="-0.3" y1="-0.6" x2="0.3" y2="-0.6" width="0.1524" layer="21"/>
<smd name="1" x="-0.9" y="0" dx="0.8" dy="1.2" layer="1"/>
<smd name="2" x="0.9" y="0" dx="0.8" dy="1.2" layer="1"/>
<text x="-0.762" y="0.8255" size="0.4064" layer="25">&gt;NAME</text>
<text x="-1.016" y="-1.397" size="0.4064" layer="27">&gt;VALUE</text>
</package>
</packages>
</library>
<library name="SeguidorLineasLbr">
<packages>
<package name="SO08">
<description>&lt;b&gt;SMALL OUTLINE INTEGRATED CIRCUIT&lt;/b&gt;&lt;p&gt;
body 3.9 mm/JEDEC MS-012AA</description>
<wire x1="-2.9" y1="3.9" x2="2.9" y2="3.9" width="0.1998" layer="39"/>
<wire x1="2.9" y1="3.9" x2="2.9" y2="-3.9" width="0.1998" layer="39"/>
<wire x1="2.9" y1="-3.9" x2="-2.9" y2="-3.9" width="0.1998" layer="39"/>
<wire x1="-2.9" y1="-3.9" x2="-2.9" y2="3.9" width="0.1998" layer="39"/>
<wire x1="2.4" y1="1.9" x2="2.4" y2="-1.4" width="0.2032" layer="51"/>
<wire x1="2.4" y1="-1.4" x2="2.4" y2="-1.9" width="0.2032" layer="51"/>
<wire x1="2.4" y1="-1.9" x2="-2.4" y2="-1.9" width="0.2032" layer="51"/>
<wire x1="-2.4" y1="-1.9" x2="-2.4" y2="-1.4" width="0.2032" layer="51"/>
<wire x1="-2.4" y1="-1.4" x2="-2.4" y2="1.9" width="0.2032" layer="51"/>
<wire x1="-2.4" y1="1.9" x2="2.4" y2="1.9" width="0.2032" layer="51"/>
<wire x1="2.4" y1="-1.4" x2="-2.4" y2="-1.4" width="0.2032" layer="51"/>
<smd name="2" x="-0.635" y="-2.6" dx="0.6" dy="2.2" layer="1"/>
<smd name="7" x="-0.635" y="2.6" dx="0.6" dy="2.2" layer="1"/>
<smd name="1" x="-1.905" y="-2.6" dx="0.6" dy="2.2" layer="1"/>
<smd name="3" x="0.635" y="-2.6" dx="0.6" dy="2.2" layer="1"/>
<smd name="4" x="1.905" y="-2.6" dx="0.6" dy="2.2" layer="1"/>
<smd name="8" x="-1.905" y="2.6" dx="0.6" dy="2.2" layer="1"/>
<smd name="6" x="0.635" y="2.6" dx="0.6" dy="2.2" layer="1"/>
<smd name="5" x="1.905" y="2.6" dx="0.6" dy="2.2" layer="1"/>
<text x="-3.175" y="-1.905" size="1.27" layer="25" rot="R90">&gt;NAME</text>
<text x="4.445" y="-1.905" size="1.27" layer="27" rot="R90">&gt;VALUE</text>
<rectangle x1="-2.1501" y1="-3.1001" x2="-1.6599" y2="-2" layer="51"/>
<rectangle x1="-0.8801" y1="-3.1001" x2="-0.3899" y2="-2" layer="51"/>
<rectangle x1="0.3899" y1="-3.1001" x2="0.8801" y2="-2" layer="51"/>
<rectangle x1="1.6599" y1="-3.1001" x2="2.1501" y2="-2" layer="51"/>
<rectangle x1="1.6599" y1="2" x2="2.1501" y2="3.1001" layer="51"/>
<rectangle x1="0.3899" y1="2" x2="0.8801" y2="3.1001" layer="51"/>
<rectangle x1="-0.8801" y1="2" x2="-0.3899" y2="3.1001" layer="51"/>
<rectangle x1="-2.1501" y1="2" x2="-1.6599" y2="3.1001" layer="51"/>
</package>
</packages>
</library>
<library name="SparkFun-Connectors">
<description>&lt;h3&gt;SparkFun Connectors&lt;/h3&gt;
This library contains electrically-functional connectors. 
&lt;br&gt;
&lt;br&gt;
We've spent an enormous amount of time creating and checking these footprints and parts, but it is &lt;b&gt; the end user's responsibility&lt;/b&gt; to ensure correctness and suitablity for a given componet or application. 
&lt;br&gt;
&lt;br&gt;If you enjoy using this library, please buy one of our products at &lt;a href=" www.sparkfun.com"&gt;SparkFun.com&lt;/a&gt;.
&lt;br&gt;
&lt;br&gt;
&lt;b&gt;Licensing:&lt;/b&gt; Creative Commons ShareAlike 4.0 International - https://creativecommons.org/licenses/by-sa/4.0/ 
&lt;br&gt;
&lt;br&gt;
You are welcome to use this library for commercial purposes. For attribution, we ask that when you begin to sell your device using our footprint, you email us with a link to the product being sold. We want bragging rights that we helped (in a very small part) to create your 8th world wonder. We would like the opportunity to feature your device on our homepage.</description>
<packages>
<package name="1X02_LONGPADS">
<description>&lt;h3&gt;Plated Through Hole - Long Pads without Silk Outline&lt;/h3&gt;
&lt;p&gt;Specifications:
&lt;ul&gt;&lt;li&gt;Pin count:2&lt;/li&gt;
&lt;li&gt;Pin pitch:0.1"&lt;/li&gt;
&lt;/ul&gt;&lt;/p&gt;
&lt;p&gt;Example device(s):
&lt;ul&gt;&lt;li&gt;CONN_02&lt;/li&gt;
&lt;/ul&gt;&lt;/p&gt;</description>
<pad name="1" x="0" y="0" drill="1.1176" diameter="1.8796" shape="long" rot="R90"/>
<pad name="2" x="2.54" y="0" drill="1.1176" diameter="1.8796" shape="long" rot="R90"/>
<text x="-1.27" y="2.032" size="0.6096" layer="25" font="vector" ratio="20">&gt;NAME</text>
<text x="-1.397" y="-2.667" size="0.6096" layer="27" font="vector" ratio="20">&gt;VALUE</text>
</package>
</packages>
</library>
<library name="SparkFun-IC-Power">
<description>&lt;h3&gt;SparkFun Power Driver and Management ICs&lt;/h3&gt;
In this library you'll find anything that has to do with power delivery, or making power supplies.
&lt;p&gt;Contents:
&lt;ul&gt;&lt;li&gt;LDOs&lt;/li&gt;
&lt;li&gt;Boost/Buck controllers&lt;/li&gt;
&lt;li&gt;Charge pump controllers&lt;/li&gt;
&lt;li&gt;Power sequencers&lt;/li&gt;
&lt;li&gt;Power switches&lt;/li&gt;
&lt;/ul&gt;&lt;/p&gt;
&lt;br&gt;
We've spent an enormous amount of time creating and checking these footprints and parts, but it is &lt;b&gt; the end user's responsibility&lt;/b&gt; to ensure correctness and suitablity for a given componet or application. 
&lt;br&gt;
&lt;br&gt;If you enjoy using this library, please buy one of our products at &lt;a href=" www.sparkfun.com"&gt;SparkFun.com&lt;/a&gt;.
&lt;br&gt;
&lt;br&gt;
&lt;b&gt;Licensing:&lt;/b&gt; Creative Commons ShareAlike 4.0 International - https://creativecommons.org/licenses/by-sa/4.0/ 
&lt;br&gt;
&lt;br&gt;
You are welcome to use this library for commercial purposes. For attribution, we ask that when you begin to sell your device using our footprint, you email us with a link to the product being sold. We want bragging rights that we helped (in a very small part) to create your 8th world wonder. We would like the opportunity to feature your device on our homepage.</description>
<packages>
<package name="SOT23-5">
<description>&lt;b&gt;Small Outline Transistor&lt;/b&gt;</description>
<wire x1="1.27" y1="0.4294" x2="1.27" y2="-0.4294" width="0.2032" layer="21"/>
<wire x1="1.4" y1="-0.8" x2="-1.4" y2="-0.8" width="0.1524" layer="51"/>
<wire x1="-1.27" y1="-0.4294" x2="-1.27" y2="0.4294" width="0.2032" layer="21"/>
<wire x1="-1.4" y1="0.8" x2="1.4" y2="0.8" width="0.1524" layer="51"/>
<wire x1="-0.2684" y1="0.7088" x2="0.2684" y2="0.7088" width="0.2032" layer="21"/>
<wire x1="1.4" y1="0.8" x2="1.4" y2="-0.8" width="0.1524" layer="51"/>
<wire x1="-1.4" y1="0.8" x2="-1.4" y2="-0.8" width="0.1524" layer="51"/>
<rectangle x1="-1.2" y1="-1.5" x2="-0.7" y2="-0.85" layer="51"/>
<rectangle x1="-0.25" y1="-1.5" x2="0.25" y2="-0.85" layer="51"/>
<rectangle x1="0.7" y1="-1.5" x2="1.2" y2="-0.85" layer="51"/>
<rectangle x1="0.7" y1="0.85" x2="1.2" y2="1.5" layer="51"/>
<rectangle x1="-1.2" y1="0.85" x2="-0.7" y2="1.5" layer="51"/>
<smd name="1" x="-0.95" y="-1.3001" dx="0.55" dy="1.2" layer="1"/>
<smd name="2" x="0" y="-1.3001" dx="0.55" dy="1.2" layer="1"/>
<smd name="3" x="0.95" y="-1.3001" dx="0.55" dy="1.2" layer="1"/>
<smd name="4" x="0.95" y="1.3001" dx="0.55" dy="1.2" layer="1"/>
<smd name="5" x="-0.95" y="1.3001" dx="0.55" dy="1.2" layer="1"/>
<text x="-0.889" y="2.159" size="0.4064" layer="25">&gt;NAME</text>
<text x="-0.9525" y="-0.1905" size="0.4064" layer="27">&gt;VALUE</text>
<circle x="-1.6002" y="-1.016" radius="0.127" width="0" layer="21"/>
</package>
</packages>
</library>
</libraries>
<attributes>
</attributes>
<variantdefs>
</variantdefs>
<classes>
<class number="0" name="default" width="0" drill="0">
</class>
</classes>
<designrules name="LaenPCBOrder">
<description language="de">&lt;b&gt;EAGLE Design Rules&lt;/b&gt;
&lt;p&gt;
Die Standard-Design-Rules sind so gewählt, dass sie für 
die meisten Anwendungen passen. Sollte ihre Platine 
besondere Anforderungen haben, treffen Sie die erforderlichen
Einstellungen hier und speichern die Design Rules unter 
einem neuen Namen ab.</description>
<description language="en">&lt;b&gt;Laen's PCB Order Design Rules&lt;/b&gt;
&lt;p&gt;
Please make sure your boards conform to these design rules.</description>
<param name="layerSetup" value="(1*16)"/>
<param name="mtCopper" value="0.0356mm 0.0356mm 0.0356mm 0.0356mm 0.0356mm 0.0356mm 0.0356mm 0.0356mm 0.0356mm 0.0356mm 0.0356mm 0.0356mm 0.0356mm 0.0356mm 0.0356mm 0.0356mm"/>
<param name="mtIsolate" value="1.5011mm 0.1499mm 0.2007mm 0.1499mm 0.2007mm 0.1499mm 0.2007mm 0.1499mm 0.2007mm 0.1499mm 0.2007mm 0.1499mm 0.2007mm 0.1499mm 0.2007mm"/>
<param name="mdWireWire" value="6mil"/>
<param name="mdWirePad" value="6mil"/>
<param name="mdWireVia" value="6mil"/>
<param name="mdPadPad" value="6mil"/>
<param name="mdPadVia" value="6mil"/>
<param name="mdViaVia" value="6mil"/>
<param name="mdSmdPad" value="6mil"/>
<param name="mdSmdVia" value="6mil"/>
<param name="mdSmdSmd" value="6mil"/>
<param name="mdViaViaSameLayer" value="8mil"/>
<param name="mnLayersViaInSmd" value="2"/>
<param name="mdCopperDimension" value="15mil"/>
<param name="mdDrill" value="6mil"/>
<param name="mdSmdStop" value="0mil"/>
<param name="msWidth" value="6mil"/>
<param name="msDrill" value="13mil"/>
<param name="msMicroVia" value="13mil"/>
<param name="msBlindViaRatio" value="0.5"/>
<param name="rvPadTop" value="0.25"/>
<param name="rvPadInner" value="0.25"/>
<param name="rvPadBottom" value="0.25"/>
<param name="rvViaOuter" value="0.25"/>
<param name="rvViaInner" value="0.25"/>
<param name="rvMicroViaOuter" value="0.25"/>
<param name="rvMicroViaInner" value="0.25"/>
<param name="rlMinPadTop" value="7mil"/>
<param name="rlMaxPadTop" value="20mil"/>
<param name="rlMinPadInner" value="7mil"/>
<param name="rlMaxPadInner" value="20mil"/>
<param name="rlMinPadBottom" value="7mil"/>
<param name="rlMaxPadBottom" value="20mil"/>
<param name="rlMinViaOuter" value="7mil"/>
<param name="rlMaxViaOuter" value="20mil"/>
<param name="rlMinViaInner" value="7mil"/>
<param name="rlMaxViaInner" value="20mil"/>
<param name="rlMinMicroViaOuter" value="4mil"/>
<param name="rlMaxMicroViaOuter" value="20mil"/>
<param name="rlMinMicroViaInner" value="4mil"/>
<param name="rlMaxMicroViaInner" value="20mil"/>
<param name="psTop" value="-1"/>
<param name="psBottom" value="-1"/>
<param name="psFirst" value="-1"/>
<param name="psElongationLong" value="100"/>
<param name="psElongationOffset" value="100"/>
<param name="mvStopFrame" value="1"/>
<param name="mvCreamFrame" value="0"/>
<param name="mlMinStopFrame" value="3mil"/>
<param name="mlMaxStopFrame" value="3mil"/>
<param name="mlMinCreamFrame" value="0mil"/>
<param name="mlMaxCreamFrame" value="0mil"/>
<param name="mlViaStopLimit" value="0mil"/>
<param name="srRoundness" value="0"/>
<param name="srMinRoundness" value="0mil"/>
<param name="srMaxRoundness" value="0mil"/>
<param name="slThermalIsolate" value="10mil"/>
<param name="slThermalsForVias" value="0"/>
<param name="dpMaxLengthDifference" value="10mm"/>
<param name="dpGapFactor" value="2.5"/>
<param name="checkGrid" value="0"/>
<param name="checkAngle" value="0"/>
<param name="checkFont" value="1"/>
<param name="checkRestrict" value="1"/>
<param name="useDiameter" value="13"/>
<param name="maxErrors" value="50"/>
</designrules>
<autorouter>
<pass name="Default">
<param name="RoutingGrid" value="50mil"/>
<param name="AutoGrid" value="1"/>
<param name="Efforts" value="0"/>
<param name="TopRouterVariant" value="1"/>
<param name="tpViaShape" value="round"/>
<param name="PrefDir.1" value="|"/>
<param name="PrefDir.2" value="0"/>
<param name="PrefDir.3" value="0"/>
<param name="PrefDir.4" value="0"/>
<param name="PrefDir.5" value="0"/>
<param name="PrefDir.6" value="0"/>
<param name="PrefDir.7" value="0"/>
<param name="PrefDir.8" value="0"/>
<param name="PrefDir.9" value="0"/>
<param name="PrefDir.10" value="0"/>
<param name="PrefDir.11" value="0"/>
<param name="PrefDir.12" value="0"/>
<param name="PrefDir.13" value="0"/>
<param name="PrefDir.14" value="0"/>
<param name="PrefDir.15" value="0"/>
<param name="PrefDir.16" value="-"/>
<param name="cfVia" value="8"/>
<param name="cfNonPref" value="5"/>
<param name="cfChangeDir" value="2"/>
<param name="cfOrthStep" value="2"/>
<param name="cfDiagStep" value="3"/>
<param name="cfExtdStep" value="0"/>
<param name="cfBonusStep" value="1"/>
<param name="cfMalusStep" value="1"/>
<param name="cfPadImpact" value="4"/>
<param name="cfSmdImpact" value="4"/>
<param name="cfBusImpact" value="0"/>
<param name="cfHugging" value="3"/>
<param name="cfAvoid" value="4"/>
<param name="cfPolygon" value="10"/>
<param name="cfBase.1" value="0"/>
<param name="cfBase.2" value="1"/>
<param name="cfBase.3" value="1"/>
<param name="cfBase.4" value="1"/>
<param name="cfBase.5" value="1"/>
<param name="cfBase.6" value="1"/>
<param name="cfBase.7" value="1"/>
<param name="cfBase.8" value="1"/>
<param name="cfBase.9" value="1"/>
<param name="cfBase.10" value="1"/>
<param name="cfBase.11" value="1"/>
<param name="cfBase.12" value="1"/>
<param name="cfBase.13" value="1"/>
<param name="cfBase.14" value="1"/>
<param name="cfBase.15" value="1"/>
<param name="cfBase.16" value="0"/>
<param name="mnVias" value="20"/>
<param name="mnSegments" value="9999"/>
<param name="mnExtdSteps" value="9999"/>
<param name="mnRipupLevel" value="10"/>
<param name="mnRipupSteps" value="100"/>
<param name="mnRipupTotal" value="100"/>
</pass>
<pass name="Follow-me" refer="Default" active="yes">
</pass>
<pass name="Busses" refer="Default" active="yes">
<param name="cfNonPref" value="4"/>
<param name="cfBusImpact" value="4"/>
<param name="cfHugging" value="0"/>
<param name="mnVias" value="0"/>
</pass>
<pass name="Route" refer="Default" active="yes">
</pass>
<pass name="Optimize1" refer="Default" active="yes">
<param name="cfVia" value="99"/>
<param name="cfExtdStep" value="10"/>
<param name="cfHugging" value="1"/>
<param name="mnExtdSteps" value="1"/>
<param name="mnRipupLevel" value="0"/>
</pass>
<pass name="Optimize2" refer="Optimize1" active="yes">
<param name="cfNonPref" value="0"/>
<param name="cfChangeDir" value="6"/>
<param name="cfExtdStep" value="0"/>
<param name="cfBonusStep" value="2"/>
<param name="cfMalusStep" value="2"/>
<param name="cfPadImpact" value="2"/>
<param name="cfSmdImpact" value="2"/>
<param name="cfHugging" value="0"/>
</pass>
<pass name="Optimize3" refer="Optimize2" active="yes">
<param name="cfChangeDir" value="8"/>
<param name="cfPadImpact" value="0"/>
<param name="cfSmdImpact" value="0"/>
</pass>
<pass name="Optimize4" refer="Optimize3" active="yes">
<param name="cfChangeDir" value="25"/>
</pass>
</autorouter>
<elements>
<element name="IC2" library="custom_components" package="SOT95P300X145-5N" value="MCP73831T-2ATI/OT" x="9.652" y="12.192" smashed="yes">
<attribute name="PACKAGE" value="SOT23-5" x="46.482" y="-9.398" size="1.778" layer="27" display="off"/>
<attribute name="OC_NEWARK" value="84R5196" x="46.482" y="-9.398" size="1.778" layer="27" display="off"/>
<attribute name="MPN" value="MCP73831T-2ATI/OT" x="46.482" y="-9.398" size="1.778" layer="27" display="off"/>
<attribute name="SUPPLIER" value="Microchip" x="46.482" y="-9.398" size="1.778" layer="27" display="off"/>
<attribute name="OC_FARNELL" value="1834890" x="46.482" y="-9.398" size="1.778" layer="27" display="off"/>
<attribute name="NAME" x="8.763" y="9.6266" size="0.8128" layer="25" font="vector" ratio="10" rot="SR0"/>
</element>
<element name="C1" library="SparkFun-Capacitors" package="0805" value="4.7uF" x="12.954" y="12.192" smashed="yes" rot="R90">
<attribute name="NAME" x="14.2875" y="11.557" size="0.6096" layer="25" font="vector" rot="R90"/>
</element>
<element name="R2" library="SparkFun-Resistors" package="0805" value="2K" x="11.176" y="14.732" smashed="yes" rot="R180">
<attribute name="NAME" x="9.7409" y="14.097" size="0.6096" layer="25" font="vector" rot="R90"/>
</element>
<element name="C2" library="SparkFun-Capacitors" package="0805" value="4.7uF" x="15.748" y="3.302" smashed="yes" rot="R270">
<attribute name="NAME" x="16.5227" y="3.9116" size="0.6096" layer="25" font="vector" rot="R270"/>
</element>
<element name="IC3" library="custom_components" package="SOT23-6L" value="LTC4412" x="19.812" y="9.398" smashed="yes">
<attribute name="NAME" x="17.399" y="10.2616" size="0.8128" layer="25" font="vector" rot="R270"/>
</element>
<element name="Q1" library="custom_components" package="SOT23" value="SI2301CDS" x="19.812" y="13.716" smashed="yes" rot="R90">
<attribute name="NAME" x="17.7292" y="11.811" size="0.8128" layer="25" font="vector" rot="R90"/>
</element>
<element name="DS1" library="custom_components" package="SOD123" value="1N5819HW-7-F" x="19.812" y="16.764" smashed="yes" rot="R180">
<attribute name="NAME" x="21.0058" y="18.6436" size="0.8128" layer="25" font="vector" rot="R180"/>
</element>
<element name="U$1" library="SeguidorLineasLbr" package="SO08" value="DMC4050SSDQ" x="10.414" y="5.08" rot="R90"/>
<element name="R1" library="SparkFun-Resistors" package="0805" value="330K" x="15.748" y="6.35" rot="R270"/>
<element name="J1" library="SparkFun-Connectors" package="1X02_LONGPADS" value="" x="3.81" y="3.81" rot="MR0"/>
<element name="J2" library="SparkFun-Connectors" package="1X02_LONGPADS" value="" x="20.574" y="3.81" rot="MR0"/>
<element name="J3" library="SparkFun-Connectors" package="1X02_LONGPADS" value="" x="3.81" y="20.32" rot="MR0"/>
<element name="U1" library="SparkFun-IC-Power" package="SOT23-5" value="3.3V/150mA" x="7.874" y="17.78" rot="R90">
<attribute name="PROD_ID" value="VREG-00822" x="7.874" y="17.78" size="1.778" layer="27" rot="R90" display="off"/>
</element>
</elements>
<signals>
<signal name="GND">
<contactref element="C1" pad="2"/>
<contactref element="IC2" pad="2"/>
<contactref element="IC3" pad="2"/>
<contactref element="IC3" pad="3"/>
<wire x1="12.954" y1="13.092" x2="12.8888" y2="13.2444" width="0.6096" layer="1"/>
<contactref element="C2" pad="2"/>
<contactref element="R2" pad="1"/>
<contactref element="J1" pad="1"/>
<contactref element="J2" pad="1"/>
<contactref element="J3" pad="1"/>
<contactref element="U1" pad="2"/>
<wire x1="3.81" y1="3.81" x2="3.81" y2="1.524" width="0.8128" layer="1"/>
<wire x1="3.81" y1="1.524" x2="4.572" y2="0.762" width="0.8128" layer="1"/>
<wire x1="4.572" y1="0.762" x2="15.748" y2="0.762" width="0.8128" layer="1"/>
<wire x1="15.748" y1="0.762" x2="19.304" y2="0.762" width="0.8128" layer="1"/>
<wire x1="19.304" y1="0.762" x2="20.574" y2="2.032" width="0.8128" layer="1"/>
<wire x1="20.574" y1="2.032" x2="20.574" y2="3.81" width="0.8128" layer="1"/>
<wire x1="15.748" y1="2.402" x2="15.748" y2="0.762" width="0.508" layer="1"/>
<wire x1="19.812" y1="8.098" x2="19.812" y2="6.604" width="0.6096" layer="1"/>
<wire x1="19.812" y1="6.604" x2="20.447" y2="5.969" width="0.6096" layer="1"/>
<wire x1="20.447" y1="5.969" x2="20.574" y2="5.842" width="0.6096" layer="1"/>
<wire x1="20.574" y1="5.842" x2="20.574" y2="3.81" width="0.6096" layer="1"/>
<wire x1="9.1741" y1="17.78" x2="7.874" y2="17.78" width="0.508" layer="1"/>
<wire x1="7.874" y1="17.78" x2="5.08" y2="17.78" width="0.508" layer="1"/>
<wire x1="5.08" y1="17.78" x2="3.81" y2="19.05" width="0.508" layer="1"/>
<wire x1="3.81" y1="19.05" x2="3.81" y2="20.32" width="0.508" layer="1"/>
<wire x1="12.076" y1="14.732" x2="12.076" y2="15.61" width="0.508" layer="1"/>
<wire x1="12.076" y1="15.61" x2="11.684" y2="16.002" width="0.508" layer="1"/>
<wire x1="11.684" y1="16.002" x2="7.874" y2="16.002" width="0.508" layer="1"/>
<wire x1="7.874" y1="16.002" x2="7.874" y2="17.78" width="0.508" layer="1"/>
<wire x1="12.076" y1="14.732" x2="12.192" y2="14.732" width="0.508" layer="1"/>
<wire x1="12.192" y1="14.732" x2="12.954" y2="13.97" width="0.508" layer="1"/>
<wire x1="12.954" y1="13.97" x2="12.954" y2="13.092" width="0.508" layer="1"/>
<wire x1="8.2804" y1="12.192" x2="6.858" y2="12.192" width="0.508" layer="1"/>
<wire x1="6.858" y1="12.192" x2="6.096" y2="12.954" width="0.508" layer="1"/>
<wire x1="6.096" y1="12.954" x2="6.096" y2="14.224" width="0.508" layer="1"/>
<wire x1="6.096" y1="14.224" x2="7.874" y2="16.002" width="0.508" layer="1"/>
<wire x1="24.384" y1="7.62" x2="24.384" y2="18.542" width="0.8128" layer="1"/>
<wire x1="24.384" y1="18.542" x2="22.606" y2="20.32" width="0.8128" layer="1"/>
<wire x1="22.606" y1="20.32" x2="3.81" y2="20.32" width="0.8128" layer="1"/>
<wire x1="24.384" y1="7.62" x2="20.574" y2="3.81" width="0.8128" layer="1"/>
<wire x1="20.762" y1="8.098" x2="20.762" y2="6.284" width="0.508" layer="1"/>
<wire x1="20.762" y1="6.284" x2="20.447" y2="5.969" width="0.508" layer="1"/>
<polygon width="0.508" layer="1" isolate="0.508">
<vertex x="0" y="0"/>
<vertex x="0" y="22.86"/>
<vertex x="25.4" y="22.86"/>
<vertex x="25.4" y="0"/>
</polygon>
</signal>
<signal name="+5V">
<contactref element="IC2" pad="4"/>
<contactref element="C1" pad="1"/>
<contactref element="DS1" pad="2"/>
<contactref element="J1" pad="2"/>
<wire x1="1.27" y1="3.81" x2="1.524" y2="4.064" width="0.8128" layer="1"/>
<wire x1="1.524" y1="4.064" x2="1.524" y2="13.462" width="0.8128" layer="1"/>
<via x="1.524" y="13.462" extent="1-16" drill="1.2" diameter="0.8128"/>
<wire x1="1.524" y1="13.462" x2="15.494" y2="13.462" width="0.8128" layer="16"/>
<via x="15.494" y="13.462" extent="1-16" drill="1.2" diameter="0.8128"/>
<wire x1="15.494" y1="13.462" x2="15.494" y2="12.7" width="0.8128" layer="1"/>
<wire x1="15.494" y1="12.7" x2="14.224" y2="11.43" width="0.8128" layer="1"/>
<wire x1="14.224" y1="11.43" x2="13.092" y2="11.43" width="0.8128" layer="1"/>
<wire x1="13.092" y1="11.43" x2="12.954" y2="11.292" width="0.8128" layer="1"/>
<wire x1="11.0236" y1="11.2522" x2="12.9142" y2="11.2522" width="0.8128" layer="1"/>
<wire x1="12.9142" y1="11.2522" x2="12.954" y2="11.292" width="0.8128" layer="1"/>
<wire x1="18.112" y1="16.764" x2="17.018" y2="16.764" width="0.8128" layer="1"/>
<wire x1="17.018" y1="16.764" x2="15.494" y2="15.24" width="0.8128" layer="1"/>
<wire x1="15.494" y1="15.24" x2="15.494" y2="13.462" width="0.8128" layer="1"/>
</signal>
<signal name="V_BATT">
<contactref element="IC3" pad="1"/>
<contactref element="Q1" pad="3"/>
<contactref element="U$1" pad="3"/>
<contactref element="C2" pad="1"/>
<contactref element="R1" pad="2"/>
<contactref element="J2" pad="2"/>
<wire x1="13.014" y1="5.715" x2="14.351" y2="5.715" width="0.6096" layer="1"/>
<wire x1="14.351" y1="5.715" x2="14.732" y2="5.334" width="0.6096" layer="1"/>
<wire x1="14.732" y1="5.334" x2="15.632" y2="5.334" width="0.6096" layer="1"/>
<wire x1="15.632" y1="5.334" x2="15.748" y2="5.45" width="0.6096" layer="1"/>
<wire x1="18.034" y1="3.81" x2="18.034" y2="4.826" width="0.6096" layer="1"/>
<wire x1="18.034" y1="4.826" x2="17.272" y2="5.588" width="0.6096" layer="1"/>
<wire x1="17.272" y1="5.588" x2="15.886" y2="5.588" width="0.6096" layer="1"/>
<wire x1="15.886" y1="5.588" x2="15.748" y2="5.45" width="0.6096" layer="1"/>
<wire x1="15.632" y1="5.334" x2="15.632" y2="4.318" width="0.6096" layer="1"/>
<wire x1="15.632" y1="4.318" x2="15.748" y2="4.202" width="0.6096" layer="1"/>
<wire x1="18.712" y1="13.716" x2="14.394" y2="9.398" width="0.8128" layer="1"/>
<wire x1="14.394" y1="9.398" x2="11.684" y2="9.398" width="0.8128" layer="1"/>
<wire x1="11.684" y1="9.398" x2="10.414" y2="8.128" width="0.8128" layer="1"/>
<wire x1="10.414" y1="8.128" x2="10.414" y2="5.842" width="0.8128" layer="1"/>
<wire x1="10.414" y1="5.842" x2="10.541" y2="5.715" width="0.6096" layer="1"/>
<wire x1="10.541" y1="5.715" x2="13.014" y2="5.715" width="0.6096" layer="1"/>
<wire x1="18.862" y1="8.098" x2="18.796" y2="8.032" width="0.6096" layer="1"/>
<wire x1="18.796" y1="8.032" x2="18.796" y2="6.604" width="0.6096" layer="1"/>
<wire x1="18.796" y1="6.604" x2="18.034" y2="5.842" width="0.6096" layer="1"/>
<wire x1="18.034" y1="5.842" x2="18.034" y2="4.826" width="0.6096" layer="1"/>
</signal>
<signal name="N$3">
<contactref element="IC2" pad="5"/>
<contactref element="R2" pad="2"/>
<wire x1="11.0236" y1="13.1318" x2="10.276" y2="13.8794" width="0.4064" layer="1"/>
<wire x1="10.276" y1="13.8794" x2="10.276" y2="14.732" width="0.4064" layer="1"/>
</signal>
<signal name="N$4">
<contactref element="IC3" pad="5"/>
<contactref element="Q1" pad="1"/>
<wire x1="19.812" y1="10.698" x2="19.812" y2="11.684" width="0.3048" layer="1"/>
<wire x1="19.812" y1="11.684" x2="20.894" y2="12.766" width="0.3048" layer="1"/>
<wire x1="20.894" y1="12.766" x2="20.912" y2="12.766" width="0.4064" layer="1"/>
</signal>
<signal name="V_OUT">
<contactref element="DS1" pad="1"/>
<contactref element="Q1" pad="2"/>
<contactref element="IC3" pad="6"/>
<contactref element="U1" pad="3"/>
<contactref element="U1" pad="1"/>
<wire x1="20.912" y1="14.666" x2="20.762" y2="14.666" width="0.3048" layer="1"/>
<wire x1="20.762" y1="14.666" x2="19.812" y2="13.716" width="0.2286" layer="1"/>
<wire x1="19.812" y1="13.716" x2="19.812" y2="12.954" width="0.2286" layer="1"/>
<wire x1="18.862" y1="12.004" x2="18.862" y2="10.698" width="0.3048" layer="1"/>
<wire x1="20.912" y1="14.666" x2="22.286" y2="14.666" width="0.8128" layer="1"/>
<wire x1="22.286" y1="14.666" x2="23.114" y2="15.494" width="0.8128" layer="1"/>
<wire x1="23.114" y1="15.494" x2="23.114" y2="16.764" width="0.8128" layer="1"/>
<wire x1="23.114" y1="16.764" x2="23.114" y2="18.034" width="0.8128" layer="1"/>
<wire x1="23.114" y1="18.034" x2="22.352" y2="18.796" width="0.8128" layer="1"/>
<wire x1="22.352" y1="18.796" x2="12.192" y2="18.796" width="0.8128" layer="1"/>
<wire x1="12.192" y1="18.796" x2="11.176" y2="17.78" width="0.8128" layer="1"/>
<wire x1="11.176" y1="17.78" x2="10.226" y2="18.73" width="0.508" layer="1"/>
<wire x1="10.226" y1="18.73" x2="9.1741" y2="18.73" width="0.508" layer="1"/>
<wire x1="9.1741" y1="16.83" x2="10.226" y2="16.83" width="0.508" layer="1"/>
<wire x1="10.226" y1="16.83" x2="11.176" y2="17.78" width="0.508" layer="1"/>
<wire x1="21.512" y1="16.764" x2="23.114" y2="16.764" width="0.8128" layer="1"/>
<wire x1="18.862" y1="12.004" x2="19.304" y2="12.446" width="0.3048" layer="1"/>
<wire x1="19.304" y1="12.446" x2="19.812" y2="12.954" width="0.2286" layer="1"/>
</signal>
<signal name="PWR_STAT">
<contactref element="IC3" pad="4"/>
<contactref element="R1" pad="1"/>
<contactref element="U$1" pad="4"/>
<wire x1="13.014" y1="6.985" x2="13.279" y2="7.25" width="0.4064" layer="1"/>
<wire x1="13.279" y1="7.25" x2="15.748" y2="7.25" width="0.4064" layer="1"/>
<wire x1="15.748" y1="7.25" x2="17.896" y2="9.398" width="0.4064" layer="1"/>
<wire x1="17.896" y1="9.398" x2="20.574" y2="9.398" width="0.4064" layer="1"/>
<wire x1="20.574" y1="9.398" x2="20.828" y2="9.652" width="0.4064" layer="1"/>
<wire x1="20.828" y1="9.652" x2="20.828" y2="10.632" width="0.4064" layer="1"/>
<wire x1="20.828" y1="10.632" x2="20.762" y2="10.698" width="0.4064" layer="1"/>
</signal>
<signal name="N$1">
<contactref element="IC2" pad="3"/>
<contactref element="U$1" pad="5"/>
<contactref element="U$1" pad="6"/>
<wire x1="7.814" y1="5.715" x2="5.969" y2="5.715" width="0.508" layer="1"/>
<wire x1="5.969" y1="5.715" x2="5.334" y2="6.35" width="0.508" layer="1"/>
<wire x1="5.334" y1="6.35" x2="5.334" y2="7.112" width="0.508" layer="1"/>
<wire x1="5.334" y1="7.112" x2="5.334" y2="10.16" width="0.508" layer="1"/>
<wire x1="5.334" y1="10.16" x2="6.35" y2="11.176" width="0.508" layer="1"/>
<wire x1="6.35" y1="11.176" x2="8.2042" y2="11.176" width="0.508" layer="1"/>
<wire x1="8.2042" y1="11.176" x2="8.2804" y2="11.2522" width="0.508" layer="1"/>
<wire x1="7.814" y1="6.985" x2="5.461" y2="6.985" width="0.508" layer="1"/>
<wire x1="5.461" y1="6.985" x2="5.334" y2="7.112" width="0.508" layer="1"/>
</signal>
<signal name="+3.3V">
<contactref element="J3" pad="2"/>
<contactref element="U1" pad="5"/>
<wire x1="1.27" y1="20.32" x2="1.27" y2="17.526" width="0.6096" layer="1"/>
<wire x1="1.27" y1="17.526" x2="2.032" y2="16.764" width="0.6096" layer="1"/>
<wire x1="2.032" y1="16.764" x2="6.5079" y2="16.764" width="0.6096" layer="1"/>
<wire x1="6.5079" y1="16.764" x2="6.5739" y2="16.83" width="0.6096" layer="1"/>
</signal>
<signal name="SINK">
<contactref element="U$1" pad="2"/>
<contactref element="U$1" pad="8"/>
<contactref element="U$1" pad="7"/>
<contactref element="U$1" pad="1"/>
<wire x1="7.814" y1="4.445" x2="10.414" y2="4.445" width="0.6096" layer="1"/>
<wire x1="10.414" y1="4.445" x2="13.014" y2="4.445" width="0.6096" layer="1"/>
<wire x1="7.814" y1="3.175" x2="10.033" y2="3.175" width="0.6096" layer="1"/>
<wire x1="10.033" y1="3.175" x2="10.414" y2="3.556" width="0.6096" layer="1"/>
<wire x1="10.414" y1="3.556" x2="10.414" y2="4.445" width="0.6096" layer="1"/>
<wire x1="13.014" y1="3.175" x2="10.795" y2="3.175" width="0.6096" layer="1"/>
<wire x1="10.795" y1="3.175" x2="10.414" y2="3.556" width="0.6096" layer="1"/>
</signal>
</signals>
</board>
</drawing>
</eagle>
